﻿Abramów 	 21-143 
Aleksandrów Kujawski 	 87-700 
Aleksandrów Łódzki 	 95-070 
Alwernia 	 32-566 
Andrespol 	 95-020 
Andrychów 	 34-120 
Andrzejewo 	 07-305 
Annopol 	 23-235 
Antoniew k. Lodzi 	 95-071 
Augustów 	 16-300 
Babiak 	 62-620 
Babice 	 32-551 
Babice Stare 	 05-082 
Babimost 	 66-110 
Baborów 	 48-120 
Baboszewo 	 09-130 
Badkowo 	 87-704 
Bakalarzewo 	 16-423 
Baligród 	 38-606 
Banie 	 74-110 
Banie Mazurskie 	 19-520 
Baniocha k. Góry Kalwarii 	 05-532 
Baranowo 	 06-320 
Baranowo k.Poznania 	 62-081 
Baranów 	 63-604 
Baranów Sandomierski 	 39-450 
Barciany 	 11-410 
Barcin 	 88-190 
Barczewo 	 11-010 
Bardo 	 57-256 
Barglow Kołcielny 	 16-320 
Barlinek 	 74-320 
Bartniczka 	 87-321 
Bartoszyce 	 11-200 
Barwice 	 78-460 
Bąków 	 46-233 
Bedków 	 97-319 
Bełchatów 	 97-400 
Bełchatów 5 	 97-406 
Bełk 	 44-230 
Bełłźec 	 22-670 
Bestwina 	 43-512 
Bialaczow 	 26-307 
Bialopole 	 22-135 
Biała 	 98-350 
Biała Piska 	 12-230 
Biała Podlaska 	 21-500 
Biała Rawska 	 96-230 
Białe Błota 	 86-005 
Białobrzegi 	 26-800 
Białogard 	 78-200 
Białołęka 	 67-221 
Białośliwie 	 89-340 
Białowieża 	 17-230 
Biały Bór 	 78-425 
Biały Bór k. Grudziądza 	 86-302 
Biały Dunajec 	 34-425 
Białystok 	 15-102 
Białystok-Grabówka 	 15-524 
Białystok-Kleosin 	 15-601 
Białystok-Zaścianki 	 15-521 
Biecz 	 38-250 
Bielany 	 08-311 
Bielany Wroclawskie 	 55-040 
Bielawa 	 58-260 
Bielawy 	 99-423 
Bielice 	 74-202 
Bieliny 	 26-004 
Bielsk 	 09-230 
Bielsk Duży 	 05-622 
Bielsk Podlaski 	 17-100 
Bielsko-Biała 	 43-309 
Bierawa 	 47-240 
Bierkowice 	 57-315 
Bieruń 	 43-155 
Bierutów 	 56-420 
Bierzwnik 	 72-240 
Biesiekierz 	 76-039 
Biezun 	 09-320 
Biłgoraj 	 23-400 
Biskupia Wola 	 97-318 
Biskupice 	 32-041 
Biskupiec 	 13-340 
Biskupiec 	 11-300 
Bisztynek 	 11-330 
Blachownia 	 42-290 
Blachownia-Cisie 	 42-290 
Blaszki 	 98-235 
Bledzew 	 66-350 
Blizyn 	 26-120 
Blok Dobryszyce 	 97-505 
Błazowa 	 36-030 
Błędów 	 05-620 
Błonie 	 05-870 
Bobolice 	 76-020 
Bobowa 	 38-350 
Bobowo 	 83-212 
Bobrowo 	 87-327 
Bochnia 	 32-700 
Bochotnica 	 24-120 
Bocki 	 17-111 
Bodzanów 	 09-470 
Bodzentyn 	 26-010 
Bogatynia 	 59-920 
Bogdaniec 	 66-450 
Bogoria 	 28-210 
Boguchwała 	 36-040 
Boguchwała k. Rzeszowa 	 36-040 
Boguszów 	 58-370 
Boguszółw-Górce 	 58-370 
Boguty-Pianki 	 07-325 
Bojadla 	 66-130 
Bojanow 	 37-433 
Bojanowo 	 63-940 
Bojszowy 	 43-220 
Bolechowice 	 32-082 
BolesĹawiec 	 59-700 
Boleszkowice 	 74-407 
Bolewice 	 64-305 
Bolimow 	 99-417 
Bolków 	 59-420 
Bolszewo 	 84-239 
Borek Wielkopolski 	 63-810 
Borki 	 21-145 
Borne Sulinowo 	 78-449 
Boronow 	 42-283 
Borowie 	 08-412 
Borów 	 57-160 
Borzytuchom 	 77-141 
Boszkowo 	 64-140 
Bralin 	 63-640 
Braniewo 	 14-500 
Brańsk 	 17-120 
Brańszczyk 	 07-221 
Bratkowice 	 36-055 
Brenna 	 43-438 
Brochów 	 05-088 
Brodnica 	 87-300 
Brodnica 	 63-112 
Brok 	 07-306 
Brudzew 	 62-720 
Brusy 	 89-632 
Brwinów 	 05-840 
Brynice 	 46-024 
Brzeg 	 49-300 
Brzeg Dolny 	 56-120 
Brzesko 	 32-800 
Brzeszcze 	 32-620 
Brześć Kujawski 	 87-880 
Brzeziny (Łódski) 	 95-060 
Brzeziny (Świętokrzyski) 	 26-026 
Brzeznica 	 34-114 
Brzeznio 	 98-275 
Brzeżnica 	 39-207 
Brzoza 	 86-061 
Brzoza 	 86-061 
Brzozów 	 36-200 
Brzuze 	 87-517 
Buczek 	 98-113 
Buczkowice 	 43-374 
Budry 	 11-606 
Budziszewice 	 97-212 
Budzyń 	 64-840 
Bujaków 	 43-356 
Buk 	 64-320 
Bukowiec 	 86-122 
Bukowina Tatrzańska 	 34-530 
Bukowno 	 32-332 
Burzenin 	 98-260 
Busko-Zdrój 	 28-100 
Bychawa 	 23-100 
Byczyna 	 46-220 
Bydgoszcz 	 85-461 
Bystra 	 43-360 
Bystrzyca Klodz. 	 57-500 
Bytom 	 41-902 
Bytom Odrzański 	 67-115 
Cedry Wielkie 	 83-020 
Cedynia 	 74-130 
Cegłów 	 05-319 
Cekcyn 	 89-511 
Celestynów 	 05-430 
Cewice 	 84-312 
Chaniez 	 43-354 
Charsznica 	 32-250 
Charzykowy 	 89-606 
Chełm 	 22-100 
Chełm Śląski 	 41-403 
Chełmek 	 32-580 
Chełmiec 	 33-395 
Chełmno 	 86-200 
Chełmża 	 87-140 
Chęciny 	 26-060 
Chmielnik 	 28-110 
Chmielno 	 83-333 
Chocen 	 87-850 
Chocianów 	 59-140 
Chociwel 	 73-120 
Chocz 	 63-313 
Choczewo 	 84-210 
Chodecz 	 87-860 
Chodel 	 24-350 
Chodzież 	 64-800 
Chojna 	 74-125 
Chojnice 	 89-600 
Chojnów 	 59-225 
Choroszcz 	 16-070 
Chorzele 	 06-330 
Chorzelów 	 39-331 
Chorzów 	 41-500 
Choszczno 	 73-200 
Chrzanów 	 32-500 
Chrzastowice 	 46-053 
Chrzypsko Wielkie 	 64-412 
Chwaszczyno 	 80-209 
Chybie 	 43-520 
Chynów 	 05-650 
Ciasna 	 42-793 
Ciechanowiec 	 18-230 
Ciechanów 	 06-400 
Ciechocinek 	 87-720 
Ciecierzyn 	 21-003 
Ciepielów 	 27-310 
Cieplowody 	 57-211 
Cierpice 	 87-165 
Cieszanów 	 37-611 
Cieszków 	 56-330 
Cieszyn 	 43-400 
Ciezkowice 	 33-190 
Cigacice 	 66-131 
Cisek 	 47-253 
Cybinka 	 69-108 
Cyców 	 22-140 
Czajków 	 63-524 
Czaplinek 	 78-550 
Czarków 	 43-211 
Czarna Białostocka 	 16-020 
Czarna Woda 	 83-262 
Czarne 	 77-330 
Czarnków 	 64-700 
Czarnocin 	 97-318 
Czarnożyły 	 98-310 
Czarny Bór 	 58-379 
Czarny Dunajec 	 34-470 
Czastary 	 98-410 
Czchów 	 32-860 
Czechowice-Dziedzice 	 43-502 
Czeladż 	 41-250 
Czemierniki 	 21-306 
Czempin 	 62-055 
Czeremcha 	 17-240 
Czernica 	 55-003 
Czernice Borowe 	 06-415 
Czerniejewo 	 62-250 
Czerniewice 	 96-217 
Czernikowo 	 87-640 
Czersk 	 89-650 
Czerwieńsk 	 66-016 
Czerwieńsk n. Wisłą 	 09-445 
Czerwionka-Leszczyny 	 44-230 
Czerwonak 	 62-004 
Częstochowa 	 42-200 
Częstochowa-Gnaszyn 	 42-280 
Czlopa 	 78-630 
Czosnów 	 05-152 
Czudec 	 38-120 
Czyzew Osada 	 18-220 
Daleszyce 	 26-021 
Dalików 	 99-205 
Damasławek 	 62-110 
Damnica 	 76-231 
Darłowo 	 76-150 
Darłówko 	 76-153 
Dąbie 	 66-615 
Dąbrowa Białostocka 	 16-200 
Dąbrowa Chełmińska 	 86-070 
Dąbrowa Górnicza 	 41-303 
Dąbrowa Kozłowska 	 26-613 
Dąbrowa Tarnowska 	 33-200 
Dąbrowa Zielona 	 42-265 
Dąbrowice 	 99-352 
Dąbrówka 	 05-252 
Dąbrówno 	 14-120 
Debrzno 	 77-310 
Dębe Wielkie 	 05-311 
Dębica 	 39-200 
Dęblin 	 08-530 
Dębnica Kaszubska 	 76-248 
Dębno 	 74-400 
Dlutów 	 95-081 
Długołęka 	 55-090 
Długosiodło 	 07-210 
Dobczyce 	 32-410 
Dobiegniew 	 66-520 
Dobiszewice 	 42-584 
Dobra 	 62-730 
Dobra Nowogardzka 	 72-210 
Dobre Miasto 	 11-040 
Dobrodzień 	 42-780 
Dobromierz 	 58-170 
Dobroń 	 95-082 
Dobroszyce 	 56-410 
Dobrzany 	 73-130 
Dobrzen Wielki 	 46-081 
Dobrzyca 	 63-330 
Dobrzyniewo Kościelne 	 16-002 
Dobrzyń n. Wisłą 	 87-610 
Dolice 	 73-115 
Dolsk 	 63-140 
Dołuje k. Szczecina 	 72-002 
Domaniewice 	 99-434 
Domaszowice 	 46-146 
Dominowo 	 63-012 
Dopiewo 	 62-070 
Dorohusk 	 22-175 
Doruchów 	 63-505 
Dółhobyczów 	 22-540 
Drawno 	 73-220 
Drawski Młyn 	 64-731 
Drawsko 	 64-733 
Drawsko Pomorskie 	 78-500 
Drągacz 	 86-134 
Drelów 	 21-570 
Drezdenko 	 66-530 
Drobin 	 09-210 
Drohiczyn 	 17-312 
Drwinia 	 32-009 
Drzewica 	 26-340 
Drzycim 	 86-140 
Dubeninki 	 19-504 
Dubicze Cerkiewne 	 17-204 
Dubiecko 	 37-750 
Dubienka 	 22-145 
Dukla 	 38-450 
Duszniki 	 64-550 
Duszniki-Zdrój 	 57-340 
Dwikozy 	 27-620 
Dychów 	 66-626 
Dygowo 	 78-113 
Dynów 	 37-760 
Dys 	 21-003 
Dywity 	 11-001 
Dziadowa Kłoda 	 56-504 
Działdowo 	 13-200 
Działoszyce 	 28-540 
Działoszyn 	 98-355 
Dziećmierowo 	 62-035 
Dziemiany 	 83-425 
Dzierzgon 	 82-440 
Dzierzgowo 	 06-520 
Dzierzkowice 	 23-251 
Dzierżoniów 	 58-200 
Dziwnów 	 72-420 
Dzwierzuty 	 12-120 
Dżwirzyno 	 78-131
Elbląg 	 82-300 
Ełk 	 19-300 
Fabianki 	 87-811 
Falenty Nowe k. Warszawy 	 05-090 
Falków 	 97-568 
Filipów 	 16-424 
Firlej 	 21-136 
Frampol 	 23-440 
Frombork 	 14-530 
Frysztak 	 38-130 
Gabin 	 09-530 
Gadka Stara 	 95-030  
Galewice 	 98-405 
Galków Duży 	 95-041 
Garbatka 	 26-930 
Garbatka Letnisko 	 26-930 
Garbów 	 21-080 
Garnek 	 42-277 
Garwolin 	 08-400 
Gasawa 	 88-410 
Gaszowice 	 44-293 
Gaworzyce 85 	 59-180 
Gdansk-Nowy Port 	 80-955 
Gdańsk 	 80-761 
Gdow 	 32-420 
Gdynia 	 81-222 
Gdynia-Redłowo 	 81-963 
Gidle 	 97-540 
Gielniów 	 26-434 
Gieraltowice 	 44-186 
Gizałki 	 63-308 
Giżycko 	 11-500 
Glinojeck 	 06-450 
Gliwice 	 44-100 
Glowno 	 95-015 
Głogów 	 67-200 
Głogów Małopolski 	 36-060 
Głogówek 	 48-250 
Głowaczów 	 26-903 
Głowczyce 	 76-220 
Głubczyce 	 48-100 
Głuchołazy 	 48-340 
Głuszyca 	 58-340 
Gniew 	 83-140 
Gniewkowo 	 88-140 
Gniewków 	 58-172 
Gniewoszów 	 26-920 
Gniezno 	 62-200 
Goczałkowice-Zdrój 	 43-230 
Godetowo 	 84-218 
Godów 	 44-340 
Godziesze Wielkie 	 62-872 
Gogolin 	 47-320 
Golczewo 	 72-410 
Goledzinów 	 55-120 
Goleniów 	 72-100 
Goleszów 	 43-440 
Golina 	 62-590 
Golków k. Piaseczna 	 05-503 
Gołańcz 	 62-130 
Gołdap 	 19-500 
Gołub-Dobrzyń 	 87-400 
Gołuchów 	 63-322 
Gołymin 	 06-420 
Gołymin-Ośrodek 	 06-420 
Gomunice 	 97-545 
Goniądz 	 19-226 
Goraj 	 23-450 
Gorlice 	 38-300 
Gorowo Ilaweckie 	 11-220 
Gorzanów 	 57-521 
Gorzkowice 	 97-350 
Gorzków 	 22-415 
Gorzno 	 87-320 
Gorzów Śląski 	 46-310 
Gorzów Wielkopolski 	 66-400 
Gorzuchowo 	 86-250 
Gorzyca 	 69-113 
Gorzyce 	 39-432 
Gosciszów 	 59-732 
Gostycyn 	 89-520 
Gostyn 	 68-800 
Gostynin 	 09-500 
Goszczyn 	 05-610 
Gościcino 	 84-241 
Gościno 	 78-120 
Gowarczów 	 26-407 
Goworowo 	 07-440 
Gozd 	 26-634 
Gozdnica 	 68-130 
Gozdowo 	 09-213 
Góra 	 56-200 
Góra Kalwaria 	 05-530 
Góra Kamieńsk 	 97-360 
Góra Śląska 	 56-200 
Górki Wielkie 	 43-436 
Górna Grupa 	 86-133 
Grabica 	 97-306 
Grabowiec 	 22-560 
Grabowo 	 18-507 
Grabów 	 99-150 
Grabów n. Pilica 	 26-902 
Grabów nad Prośną 	 63-520 
Grajewo 	 19-200 
Granowo 	 62-066 
Grebocice 	 59-150 
Grodek 	 16-040 
Grodków 	 49-200 
Grodziec 	 62-580 
Grodziec k. Bielska-Białej 	 43-386 
Grodzisk 	 17-315 
Grodzisk Mazowiecki 	 05-825 
Grodzisk Wielkopolski 	 62-065 
Grojec 	 32-566 
Gromadka 	 59-706 
Gronowo Elbląskie 	 82-335 
Gródków 	 42-575 
Grójec 	 05-600 
Grudusk 	 06-460 
Grudziądz 	 86-300 
Gruszów 	 32-414 
Grybów 	 33-330 
Gryfice 	 72-300 
Gryfino 	 74-100 
Gryfów Śląski 	 59-860 
Grzegorzów 	 62-640 
Grzmiąca 	 78-450 
Gubin 	 66-620 
Gzy 	 06-126 
Hajnówka 	 17-200 
Halinow 	 05-074 
Hecznarowice 	 43-330 
Hel 	 84-150 
Herby 	 42-284 
Holowczyce 	 08-221 
Hornówek 	 05-080 
Horodło 	 22-523 
Horyniec 	 37-620 
Hrubieszów 	 22-500 
Iława 	 14-200 
Iłowa 	 68-120 
Iłowo-Osada 	 13-240 
Iłów 	 09-535 
Iłża 	 27-100 
Imielin 	 41-407 
Inowłódz 	 97-215 
Inowrocław 	 88-100 
Ińsko 	 73-140 
Istebna 	 43-470 
Iwaniska 	 27-276 
Iwonicz-Zdrój 	 38-440 
Izabelin 	 05-080 
Izbica 	 22-475 
Izbica Kujawska 	 87-865 
Izbicko 	 46-049 
Izdebnik 	 34-144
Jabłonka 	 34-480 
Jabłonna 	 05-110 
Jabłonna Łącka 	 08-304 
Jabłonowo Pomorskie 	 87-330 
Jabłoń 	 21-205 
Jadów 	 07-160 
Jaktorów 	 96-313 
Janczewice 	 05-506 
Janikowo 	 88-160 
Janki 	 05-090 
Jankowice Rybnickie 	 44-264 
Jankowice Wielkie 	 49-332 
Janowek Pershy 	 05-124 
Janowice Wielkie 	 58-520 
Janowiec n. Wisłą 	 24-123 
Janowiec Wielkopolski 	 88-430 
Janowo 	 13-113 
Janów 	 42-253 
Janów Lubelski 	 23-300 
Janów Podlaski 	 21-505 
Jaraczewo 	 63-233 
Jarczów 	 22-664 
Jarkowice 	 58-423 
Jarocin 	 63-200 
Jarosław 	 37-500 
Jaroszowiec 	 32-312 
Jaroszów 	 58-120 
Jasienica 	 43-385 
Jasienica Rosielna 	 36-220 
Jasieniec 	 05-604 
Jasień 	 68-320 
Jasionówka 	 19-122 
Jaskrów 	 42-244 
Jasło 	 38-200 
Jastarnia 	 84-140 
Jastków 	 21-002 
Jastrowie 	 64-915 
Jastrząb 	 26-502 
Jastrzębia 	 26-631 
Jastrzębia Góra 	 84-10 
Jastrzębia k. Radomia 	 26-631 
Jastrzębie Zdrój 	 44-336 
Jawiszowiec 	 32-626 
Jawor 	 59-400 
Jaworze 	 43-384 
Jaworzno 	 43-600 
Jaworzno 	 46-325 
Jaworzyna Śląska 	 58-140 
Jedlicze 	 38-460 
Jedlina Zdrój 	 58-330 
Jedlińsk 	 26-660 
Jedlnia Letnisko 	 26-630 
Jednorożec 	 06-323 
Jedwabne 	 18-429 
Jejkowice 	 44-290 
Jelcz-Laskowice 	 55-230 
Jelenia Góra 	 58-500 
Jeleniewo 	 16-404 
Jeleśnia 	 34-340 
Jemielnica 	 47-133 
Jerzmanowa 	 67-222 
Jeziorany 	 11-320 
Jeziorzany 	 21-146 
Jeżewo 	 86-131 
Jeżów 	 95-047 
Jeżów Sudecki 	 58-221 
Jędrzejów 	 28-300 
Jędrzychowice 	 59-900 
Jodłownik 	 34-620 
Jonkowo 	 11-042 
Jordanów 	 34-785 
Jordanów Śląski 	 55-065 
Jozefow 	 05-410 
Jozefow-Michalin 	 05-410 
Józefosław 	 05-500 
Józefów 	 23-240 
Józefów k. Otwocka 	 05-420 
Jurata 	 84-141 
Jutrosin 	 63-930 
Kaczory 	 64-810 
Kadzidło 	 07-420 
Kalety 	 42-750 
Kalinowo 	 19-314 
Kaliska 	 83-260 
Kalisz 	 62-800 
Kalisz Pomorski 	 78-540 
Kaluszyn 	 05-310 
Kalwaria Zebrzydowska 	 34-130 
Kamienica Polska 	 42-260 
Kamieniec 	 64-061 
Kamieniec Wrocławski 	 55-002 
Kamieniec Ząbkowicki 	 57-230 
Kamienna Góra 	 58-400 
Kamiennik 	 48-388 
Kamień Krajeński 	 89-430 
Kamień Pomorski 	 72-400 
Kamieńczyk n. Bugiem 	 07-220 
Kamieńsk 	 97-360 
Kamionka 	 21-132 
Kampinos 	 05-085 
Kamyk 	 42-125 
Kańczuga 	 37-220 
Karczew 	 05-480 
Kargowa 	 64-220 
Karlino 	 78-230 
Karnice 	 72-343 
Karpacz 	 58-540 
Kartuzy 	 83-300 
Katowice 	 40-203 
Kazanów 	 26-713 
Kazimierz Biskupi 	 62-530 
Kazimierz Dolny 	 24-120 
Każmierz 	 64-530 
Kąty Wrocławskie 	 55-080 
Kcynia 	 89-240 
Kepno 	 63-600 
Kesowo 	 89-506 
Kety 	 32-650 
Kędzierzyn-Kożle 	 47-220 
Kępice 	 77-230 
Kępno 	 63-600 
Kętrzyn 	 11-400 
Kielce 	 25-900 
Kielczów k. Wrocławia 	 56-418 
Kiełpino 	 83-307 
Kietrz 	 48-130 
Kijewo Królewskie 	 86-253 
Kiszkowo 	 62-280 
Klikuszowa 	 34-404 
Klobuck 	 42-100 
Kluczbork 	 46-200 
Klucze 	 32-310 
Kłodzko 	 57-304 
Kłomnice 	 42-270 
Kłudzienko 	 05-824 
Knurów 	 44-196 
Kobylice 	 47-200 
Kobylnica 	 62-006 
Kobylnica 	 76-251 
Kobyłka 	 05-230 
Kocierzew 	 99-414 
Koczała 	 77-220 
Kodeń 	 21-509 
Kodrab 	 97-512 
Kolaki Kościelne 	 18-315 
Kolbiel 	 05-340 
Kolbudy 	 83-050 
Kolbudy Górne 	 83-050 
Kolbuszowa 	 36-100 
Kolczygłowy 	 77-140 
Kolno 	 18-500 
Kolonia Poczesna 	 42-262 
Kolonowskie 	 46-057 
Kolsko 	 67-415 
Koluszki 	 97-140 
Kołaczkowo gm.Kołaczkowo 	 62-306 
Kołaczkowo gm.Witkowo 	 62-425 
Kołbaskowo 	 72-001 
Koło 	 62-600 
Kołobrzeg 	 78-100 
Komancza 	 38-543 
Komarów-Osada 	 22-435 
Komarówka Podlaska 	 21-311 
Komorniki 	 62-052 
Komorów-Granica 	 05-806 
Komprachcice 	 47-070 
Konarzyny 	 77-120 
Koniecpol 	 42-230 
Konin 	 62-510 
Koniusza 	 32-104 
Konopiska 	 42-274 
Konstancin-Jeziorna 	 05-510 
Konstantynów 	 21-543 
Konstantynów Łódzki 	 95-050 
Końskie 	 26-200 
Końskowola 	 24-130 
Koprzywnica 	 27-660 
Korbielów 	 34-335 
Korczew 	 08-108 
Korczyna 	 38-420 
Korfantow 	 49-137 
Kornik 	 62-035 
Kornowac 	 44-285 
Koronowo 	 86-010 
Korsze 	 11-430 
Korwinów 	 42-262 
Korycin 	 16-140 
Korytnica 	 07-120 
Kosakowo 	 81-198 
Kosów Łącki 	 08-330 
Kostomłoty 	 55-311 
Kostrza 	 58-150 
Kostrzyn 	 62-025 
Kostrzyn n. Odra 	 66-470 
Kostrzyn Odrzański 	 66-470 
Koszalin 	 75-841 
Koszecin 	 42-286 
Koszyce 	 28-510 
Kościan 	 64-000 
Kościelec 	 62-604 
Kościelisko 	 34-511 
Kościerzyna 	 83-400 
Kotlarnia 	 47-246 
Kotlin 	 63-220 
Kotun 	 08-130 
Kowal 	 87-820 
Kowala 	 26-624 
Kowala Kolonia 	 26-624 
Kowala Stepocina 	 26-624 
Kowale Oleckie 	 19-420 
Kowalewo Pomorskie 	 87-410 
Kowary 	 58-530 
Kowiesy 	 96-111 
Koziegłowy (Śląskie) 	 42-295 
Koziegłowy (Wielkopolskie) 	 62-028 
Kozienice 	 26-900 
Kozmin Wielkopolski 	 63-720 
Kozminek 	 62-840 
Kozy 	 43-340 
Kozy k. Bielska-Białej 	 43-340 
Kożmin 	 63-720 
Kożuchów 	 67-120 
Kragola 	 62-571 
Krajenka 	 77-430 
Krakow-Liszki 	 32-060 
Krakow-Zielonki 70 	 32-087 
Kraków 	 31-403 
Kramsk 	 62-511 
Krapkowice 	 47-300 
Krasiczyn 	 37-741 
Krasienin 	 21-004 
Krasne 	 36-007 
Krasniczyn 	 22-310 
Krasnobród 	 22-440 
Krasnopol 	 16-503 
Krasnosielc 	 06-212 
Krasnystaw 	 22-300 
Krasocin 	 29-105 
Kraśnik 	 23-210 
Kraśnik Lubelski 	 23-200 
Krobia 	 63-840 
Kroczyce 	 42-345 
Krokowa 	 84-110 
Krosno 	 38-400 
Krosno Odrzańskie 	 66-600 
Krosnowice 	 57-362 
Krościenko n. Dunajcem 	 34-450 
Krościenko Wyżne 	 38-422 
Krośnice 	 56-320 
Krośniewice 	 99-340 
Krotoszyn 	 63-700 
Kruklanki 	 11-612 
Krupski Młyn 	 42-693 
Kruszwica 	 88-150 
Kruszyn 	 87-853 
Kruszyna 	 42-282 
Krynica Morska 	 82-314 
Krynica-Zdrój 	 33-380 
Krynki 	 16-120 
Krzanowice 	 47-470 
Krzczonów 	 23-110 
Krzecin 	 73-231 
Krzemienica 	 37-127 
Krzemieniewo 	 64-120 
Krzepice 	 42-160 
Krzeszowice 	 32-065 
Krzeszów 	 58-405 
Krzeszyce 	 66-435 
Krzykosy 	 63-024 
Krzymów 	 62-513 
Krzywda 	 21-470 
Krzywin 	 64-110 
Krzyż Wielkopolski 	 64-950 
Krzyżanowice 	 47-450 
Krzyżowa 	 34-335 
Ksawerów 	 95-054 
Książ Wielki 	 32-210 
Książ Wielkopolski 	 63-130 
Książki 	 87-222 
Kuczbork-Osada 	 09-310 
Kudowa Zdrój 	 57-350 
Kulesze Kościelne 	 18-208 
Kunice 	 59-216 
Kunów 	 27-222 
Kup 	 46-082 
Kurów 	 24-170 
Kurzetnik 	 13-306 
Kuślin 	 64-316 
Kutno 	 99-300 
Kunia Raciborska 	 47-420 
Kużnica 	 16-123 
Kwidzyn 	 82-500 
Kwilcz 	 64-420 
Kwirynów 	 05-082 
Labiszyn 	 89-210 
Lachowice 	 34-232 
Laka 	 59-700 
Lambinowice 	 46-074 
Lanckorona 	 34-143 
Lapsze Nizne 	 34-442 
Lasin 	 86-320 
Laskowa 	 34-602 
Laskowice Pomorskie 	 86-130 
Latowicz 	 05-334 
Laziska Górne 	 43-170 
Lądek 	 62-406 
Lądek Zdrój 	 57-540 
Ledziny 	 43-143 
Legionowo 	 05-120 
Legnica 	 59-220 
Legnickie Pole 	 59-241 
Lelis 60 	 07-402 
Lelów 	 42-235 
Leoncin 	 05-155 
Lesko 	 38-600 
Leszno 	 64-100 
Leszno 	 05-084 
Lesznowola 	 05-506 
Leśna 	 59-820 
Leśna Podlaska 	 21-542 
Leśnica 	 47-150 
Lewin Brzeski 	 49-340 
Lewin Kłodzki 	 57-343 
Leżajsk 	 37-300 
Lębork 	 84-300 
Lgota Wielka 	 97-565 
Libiaz 	 32-590 
Lichnowy 	 82-224 
Lidzbark 	 13-230 
Ligota Piękna 	 55-114 
Limanowa 	 34-600 
Linia 	 84-223 
Liniewo 	 83-420 
Lipce Reymontowskie 	 96-127 
Lipiany 	 74-240 
Lipie 	 42-165 
Lipinki Łużyckie 	 68-213 
Lipno 	 87-600 
Lipowa 	 34-324 
Liszki 	 32-060 
Lubaczów 	 37-600 
Lubań 	 59-800 
Lubartów 	 21-100 
Lubasz 	 64-720 
Lubawa 	 14-260 
Lubawka 	 58-420 
Lubichowo 	 83-240 
Lubicz 	 87-162 
Lubień Kujawski 	 87-840 
Lubiewo 	 89-526 
Lubin 	 59-301 
Lubiszyn 	 66-433 
Lublin 	 20-218 
Lublin 62 	 20-258 
Lubliniec 	 42-700 
Lubniany 	 46-024 
Lubnice 	 98-432 
Lubniewice 	 69-210 
Lubnów 	 55-120 
Lubochnia 	 97-217 
Lubomia 	 44-360 
Lubomierz 	 58-536 
Lubomino 	 11-135 
Luboń 	 62-031 
Luboszyce 	 46-022 
Lubowidz 	 09-304 
Lubraniec 	 87-890 
Lubsko 	 68-300 
Lubsza 	 49-313 
Lubycza Królewska 	 22-680 
Lukta 	 14-105 
Lutocin 	 09-317 
Lutomiersk 	 98-135 
Lututów 	 98-360 
Luzino 	 84-242 
Lwówek 	 64-310 
Lwówek Śląski 	 59-600 
Lypnytsa 	 36-123 
Maciejowice 	 08-480 
Magnuszew 	 26-910 
Majdan Królewski 	 39-452 
Majdan Stary 	 23-414 
Majków Duzy 	 97-371 
Makowiec 	 26-640 
Maków 	 96-124 
Maków Mazowiecki 	 06-200 
Maków Podhalański 	 34-220 
Malanów 	 62-709 
Malbork 	 82-200


 
Malczyce 	 56-320 
Maldyty 	 14-330 
Malechowo 	 76-142 
Malkina 	 07-320 
Malkinia Górna 	 07-320 
Mała Wieś	 09-460 
Małogoszcz 	 28-366 
Małomice 	 67-320 
Maniowy 	 34-436 
Marcinowice 	 58-124 
Marciszów 	 58-410 
Margonin 	 64-830 
Marianowo 	 73-121 
Marki 	 05-270 
Markłowice 	 44-321 
Markuszów 	 24-173 
Masłów 	 26-001 
Maszewo 	 72-130 
Medyka 	 37-732 
Mełgiew 	 21-007 
Miasteczko Krajenskie 	 89-350 
Miasteczko Śląskie 	 42-620 
Miastko 	 77-200 
Miastkowo 	 18-413 
Miastków Kościelny 	 08-420 
Michałowice 	 05-816 
Michałowice 	 32-091 
Michałowo 	 16-050 
Michałów 	 05-126 
Michałów Grabina k. Warszawy 	 05-126 
Michałów-Reginów 	 05-119 
Michów 	 21-140 
Miedziana Góra 	 26-085 
Miedzichowo 	 64-361 
Miedzno 	 42-120 
Miedzyborów 	 96-316 
Miedzyborz 	 56-513 
Miedzybrodzie Bialskie 	 34-312 
Miejsce Piastowe 	 38-430 
Miejska Górka 	 63-910 
Miekinia 	 55-330 
Mielec 	 39-300 
Mielnik 	 17-307 
Mielno 	 76-032 
Mieroszów 	 58-350 
Mierzecice 	 42-460 
Mierzyn k. Szczecina 	 72-002 
Mieszkowice 	 74-505 
Mieścisko 	 62-290 
Mietków 	 55-081 
Międzychód 	 64-400 
Międzylesie 	 57-530 
Międzyrzec Podlaski 	 21-560 
Międzyrzecz 	 66-300 
Międzyrzecze Górne 	 43-392 
Międzyzdroje 	 72-500 
Miętna 	 08-400 
Mikołajki 	 11-730 
Mikołów 	 43-190 
Milakowo 	 14-310 
Milanów 	 21-210 
Milanówek 	 05-822 
Milejczyce 	 17-332 
Milejowice 	 26-652 
Milejów 	 21-020 
Milicz 	 56-300 
Milomłyn 	 14-140 
Milowka 	 34-360 
Miłki 	 11-513 
Miłkowice 	 59-222 
Miłoradż	 82-213 
Miłosław 	 62-320 
Mińsk Mazowiecki 	 05-300 
Mińsk Mazowiecki, Stojadła 	 05-300 
Mircze 	 22-530 
Mirków 	 56-411 
Miroslawiec 	 78-650 
Mirosławice 	 98-135 
Mirsk 	 59-870 
Miszewo 	 83-304 
Mława 	 06-500 
Młodzieszyn 	 96-512 
Młynary 	 14-420 
Młynarze 	 06-231 
Mniów 	 26-083 
Mniszków 	 26-341 
Mochle/Bydgoszcz 	 86-014 
Modliborzyce 	 23-310 
Modlnica 	 32-085 
Mogielnica 	 05-640 
Mogilany 	 32-031 
Mogilno 	 88-300 
Mokobody 	 08-124 
Mokronos Dolny 	 55-070 
Monki 	 19-100 
Morawica 	 26-026 
Morawica k/Krakowa 	 10-112 
Morąg 	 14-300 
Mordy 	 08-140 
Moryń	 74-503 
Morzeszczyn 	 83-132 
Mosina 	 62-050 
Mrągowo 	 11-700 
Mrocza 	 89-115 
Mroków k. Warszawy 	 05-551 
Mrowla 	 36-054 
Mrozy 	 05-320 
Mstow 	 42-244 
Mszana 	 44-325 
Mszana Dolna 	 34-730 
Mszczonów 	 96-320 
Murowana Goślina 	 62-095 
Murów 	 46-030 
Murzasichle 	 34-531 
Muszyna 	 33-370 
Mykanów 	 42-233 
Mysłowice 	 41-400 
Myszkow-Postep 	 42-350 
Myszków 	 42-300 
Myszyniec 	 07-430 
Myślakowice 	 58-533 
Myślakowice 	 58-533 
Myślenice 	 32-400 
Myślibórz 	 74-300 
MyNadarzyn 	 05-830 
Nakło 	 89-100 
Nakło n. Notecią	 89-100 
Nakło Śląskie 	 42-620 
Nałęczów 	 24-150 
Namysłów 	 46-100 
Narew 	 17-210 
Narewka 	 17-220 
Narol 	 37-610 
Narzym 	 06-565 
Nasielsk 	 06-130 
Nawojowa 	 33-335 
Nekla 	 62-330 
Nędza 	 47-440 
Nidzica 	 13-100 
Nieborów 	 99-416 
Niechanowo 	 62-220 
Niechlów 	 56-215 
Niechorze 	 72-350 
Niedrzwica Duża 	 24-220 
Niegowa 	 42-320 
Nieklan Wielki 	 26-222 
Niemce k. Lublina 	 21-025 
Niemcza 	 58-230 
Niemodlin 	 49-100 
Niepolomice 	 32-005 
Nieporet 	 05-126 
Niepruszewo 	 64-320 
Nieszawa 	 87-730 
Nieświn 	 26-205 
Nieznań  	 74-106 
Nisko 	 37-400 
Nowa Brzeznica 	 98-331 
Nowa Dęba 	 39-460 
Nowa Jastrząbka 	 33-15 
Nowa Ruda 	 57-402 
Nowa Sarzyna 	 37-310 
Nowa Słupia 	 26-006 
Nowa Sól 	 67-100 
Nowa Sucha 	 96-513 
Nowa Wieś	 42-262 
Nowa Wieś Lęborska 	 84-351 
Nowa Wieś Wielka 	 89-060 
Nowe 	 86-170 
Nowe Brzesko 	 32-120 
Nowe Miasteczko 	 67-124 
Nowe Miasto 	 09-120 
Nowe Miasto Lubawskie 	 13-300 
Nowe Miasto n. Pilica 	 26-420 
Nowe Miasto n. Warta 	 63-040 
Nowe n. Wisłą	 86-170 
Nowe Skałmierzyce 	 63-460 
Nowe Warpno 	 72-022 
Nowiny k. Kielc 	 26-052 
Nowogard 	 72-200 
Nowogrodziec 	 59-730 
Nowogród 	 18-414 
Nowogród Bobrzański 	 66-010 
Nowogródek Pomorski 	 74-304 
Nowy Duninów 	 09-505 
Nowy Dwór 	 16-205 
Nowy Dwór Gdański 	 82-100 
Nowy Dwór Mazowiecki 	 05-100 
Nowy Kawęczyn 	 96-115 
Nowy Sącz 	 33-300 
Nowy Staw 	 82-230 
Nowy Targ 	 34-400 
Nowy Tomyśl 	 64-300 
Nowy Wiśnicz 	 32-720 
Nowy Żmigród 	 38-230 
Nożynko 	 77-116 
Nur 	 18-322 
Nurzec Stacja 	 17-330 
Nysa 	 48-300 
ślina 	 42-783 
 64-600 
Oborniki Śląskie 	 55-035 
Obrzycko 	 64-520 
Odolanów 	 63-430 
Odrzywol 	 26-425 
Ogrodzieniec 	 42-440 
Ojrzen 	 06-456 
Okonek 	 64-895 
Oksa 	 28-363 
Olecko 	 19-400 
Olesno 	 33-210 
Oleszna 	 58-214 
Oleszyce 	 37-630 
Oleśnica 	 56-400 
Olkusz 	 32-300 
Olszewo Borki 	 07-415 
Olsztyn 	 10-900 
Olsztyn k. Częstochowy 	 42-256 
Olsztynek 	 11-015 
Olszyna 	 59-830 
Oława 	 55-200 
Opalenica 	 64-330 
Opatowiec 	 28-520 
Opatów 	 42-152 
Opatówek 	 62-860 
Opinogora 	 06-406 
Opoczno 	 26-300 
Opole 	 45-309 
Opole Lubelskie 	 24-300 
Orchowo 	 62-436 
Orla 	 17-106 
Orneta 	 11-130 
Ornontowice 	 44-176 
Orońsko 	 26-681 
Orzesze 	 43-180 
Orzysz 	 12-250 
Osie 	 86-150 
Osieciny 	 88-220 
Osieck 	 08-445 
Osieczna 	 83-242 
Osiecznica 	 59-724 
Osiek 	 28-221 
Osiek Mały 	 62-613 
Osielsko 	 86-031 
Osjakow 	 98-320 
Osno Lubuskie 	 69-220 
Osowiec 	 46-023 
Ostaszewo 	 82-112 
Ostrołęka 	 07-409 
Ostromecko 	 86-070 
Ostroróg 	 64-560 
Ostroszowice 	 58-262 
Ostrowiec 	 76-129 
Ostrowiec Świętokrzyski 	 27-400 
Ostrowite 	 62-402 
Ostrowy n. Okszą	 42-122 
Ostróda 	 14-100 
Ostrów Lubelski 	 21-110 
Ostrów Mazowiecka 	 07-300 
Ostrów Wielkopolski 	 63-400 
Ostrówek 	 05-205 
Ostrówek Węgrowski 	 07-132 
Ostrzeszów 	 63-500 
Oswiecim-Babice 	 32-600 
Oświęcim 	 32-600 
Otmuchów 	 48-385 
Otrębusy 	 05-805 
Otwock 	 05-400 
Otyn 	 67-106 
Owinska 	 62-005 
Ozimek 	 46-040 
Ozorków 	 95-035 
Ożarowice 	 41-960 
Ożarów 	 27-530 
Ożarów Mazowiecki 	 05-850
Pabianice 	 95-200 
Pacanów 	 28-133 
Pacyna 	 09-541 
Paczków 	 48-370 
Pajeczno 	 98-330 
Pakosc 	 88-170 
Pakosław 	 63-920 
Palędzie k/Poznania 	 62-069 
Panki 	 42-140 
Papowo Biskupie 	 86-221 
Paprotnia 	 08-107 
Paradyz 	 26-333 
Parchowo 	 77-124 
Parczew 	 21-200 
Parowa 	 59-724 
Parszów 	 27-215 
Parysów 	 08-441 
Parzeczew 	 95-045 
Parznice 	 26-624 
Pasłęk 	 14-400 
Pasym 	 12-130 
Paterek 	 89-100 
Pawłowek 	 86-014 
Pawłowice 	 43-250 
Pawłowiczki 	 47-280 
Pawonków 	 42-772 
Peczniew 	 99-235 
Pelplin 	 83-130 
Pełczyce 	 74-330 
Pepowo 	 63-830 
Perzów 	 63-642 
Piaseczno 	 05-500 
Piaski 	 21-050 
Piaski k. Lublina 	 21-050 
Piastoszyn 	 89-506 
Piastów 	 05-820 
Piątek 	 99-120 
Piątnica 	 18-421 
Piechcin 	 88-192 
Piechowice 	 58-573 
Piecki 	 11-710 
Piekary Śląskie 	 41-940 
Piekoszów 	 26-065 
Pieniężno 	 14-520 
Pieńsk 	 59-930 
Pierzchnica 	 28-112 
Pieszyce 	 58-250 
Pietrowice Wielkie 	 47-480 
Piętno 	 62-740 
Pilawa 	 08-440 
Pilawa Dolna 	 58-241 
Pilawa Górna 	 58-240 
Pilchowice 	 44-145 
Pilica 	 42-436 
Pilzno 	 39-220 
Piła 	 64-920 
Pińczów 	 28-400 
Pionki 	 26-670 
Piotrków Kujawski 	 88-230 
Piotrków Trybunalski 	 97-300 
Pisarzowice 	 49-314 
Pisarzowice k. Bielska Białej 	 32-632 
Pisz 	 12-200 
Piszczac 	 21-530 
Piwniczna 	 33-350 
Pleszew 	 63-300 
Pludry 	 42-775 
Pławce 	 63-011 
Płochocin 	 05-860 
Płock 	 09-400 
Płońsk 	 09-100 
Płośnica 	 13-206 
Płoty 	 72-310 
Pniewy 	 62-045 
Pobiedziska 	 62-010 
Poczesna 	 42-262 
Poddębice 	 99-200 
Podegrodzie 	 33-386 
Podgorzyn 	 58-562 
Podkowa Leśna 	 05-807 
Pogorzela 	 63-860 
Pogwizdów 	 43-418 
Pokrzywnica 	 06-121 
Polajewo 	 64-710 
Polanica Zdrój 	 57-320 
Polanka Wielka 	 32-607 
Polanów 	 76-130 
Police 	 72-010 
Policzna 	 26-907 
Polkowice 	 59-320 
Polska Cerekiew 	 47-260 
Połaniec 	 28-230 
Połchowo 	 84-123 
Połczyn Zdrój 	 78-320 
Pomiechowek 	 05-180 
Poniatowa 	 24-320 
Poniec 	 64-125 
Popielów 	 46-090 
Popów 	 42-110 
Popówko 	 64-606 
Poraj 	 42-297 
Porąbka 	 34-313 
Poręba 	 42-480 
Poronin 	 43-520 
Potęgowo 	 76-230 
Powidz 	 62-430 
Pozezdrze 	 11-610 
Poznań	 60-967 
Prabuty 	 82-550 
Praszka 	 46-320 
Prazmów 	 05-505 
Prochowice 	 59-230 
Promna 	 26-803 
Prostki 	 19-335 
Proszków 	 46-060 
Proszowice 	 32-100 
Pruchnik 	 37-560 
Prudnik 	 48-200 
Prusice 	 55-110 
Prusy 	 57-150 
Pruszcz 	 86-120 
Pruszcz Gdański 	 83-000 
Pruszków 	 05-800 
Pruzmierowo k. Poznania 	 62-081 
Przasnysz 	 06-300 
Przechlewo 	 77-320 
Przeciszów 	 32-641 
Przecław 	 72-005 
Przedbórz 	 97-570 
Przedecz 	 62-635 
Przemet 	 67-418 
Przemków 	 59-325 
Przemyśl 	 37-700 
Przerósł	 16-427 
Przesiadlów 	 97-225 
Przesmyki 	 08-109 
Przeworno 	 57-130 
Przeworsk 	 37-200 
Przewoz 	 68-132 
Przeżmierowo 	 62-081 
Przodkowo 	 83-304 
Przybiernów 	 72-110 
Przybysławice 	 32-088 
Przygodzice 	 63-421 
Przykona 	 62-731 
Przylep 	 66-015 
Przyrów 	 42-248 
Przystajn 	 42-141 
Przysucha 	 26-400 
Przytoczna 	 66-340 
Przytuły 	 18-423 
Przytyk 	 26-650 
Przywidż	 83-047 
Psary 	 42-512 
Pstrągowa 	 38-121 
Pszczew 	 66-330 
Pszczółki 	 83-032 
Pszczyna 	 43-200 
Pszczyna-Cwiklice 	 43-229 
Pszów 	 44-370 
Puchaczów 	 21-013 
Puck 	 84-100 
Puławy 	 24-100 
Pułtusk 	 06-100 
Puńsk 	 16-515 
Pustków 	 39-205 
Puszczykowo 	 62-040 
Pyasky 	 63-645 
Pyrzyce 	 74-200 
Pyskowice 	 44-120 
Pysznica 	 37-403 
Pyzdry 	 62-415 
Raba Wyzna 	 34-721 
Rabka 	 34-700 
Rachanie 	 22-640 
Raciąż	 09-140 
Raciążek 	 87-721 
Racibórz 	 47-400 
Raciechowice 	 32-415 
Raczki 	 16-420 
Radków 	 57-410 
Radlin 	 44-310 
Radom 	 26-604 
Radom-Glinice 	 26-600 
Radomsko 	 97-500 
Radomsko 	 97-500 
Radomyśl 	 37-455 
Radomyśl Wielki 	 33-225 
Radoszki 	 87-321 
Radoszyce 	 26-230 
Radwanice 	 55-015 
Radymno 	 37-550 
Radzanowo 	 09-451 
Radziejowice 	 96-325 
Radziejów 	 88-200 
Radziłów 	 19-213 
Radzionków 	 41-922 
Radziszewo 	 72-012 
Radzymin 	 05-250 
Radzyn Chełmiński 	 87-220 
Radzyn Podlaski 	 21-300 
Rajcza 	 34-370 
Rajgród 	 19-206 
Rakoniewice 	 62-067 
Raków 	 27-435 
Raków Duży 	 97-310 
Rakszawa 	 37-111 
Raszków 	 63-440 
Raszyn 	 05-090 
Raszyn-Janki 	 05-090 
Raszyn-Puchały k. Warszawy 	 05-090 
Rawa Mazowiecka 	 96-200 
Rawicz 	 63-900 
Racula 	 66-004 
Reda 	 84-240 
Rejowiec 	 22-360 
Rejowiec Fabryczny 	 22-169 
Rejowiec Fabryczny 3 	 22-169 
Reńska Wieś	 47-208 
Repki 	 08-307 
Resko 	 73-310 
Reszel 	 11-440 
Rewal 	 72-344 
Ręcz 	 73-210 
Ręczno 	 97-510 
Rędziny 	 42-242 
Rogowiec 	 97-427 
Rogowo 	 88-420 
Rogów 	 96-135 
Rogów Sobocki 	 55-045 
Rojewo 	 88-111 
Rokiciny 	 97-221 
Ropczyce 	 39-100 
Ropica Polska 	 38-300 
Rosciszewo 	 09-204 
Rossosz 	 21-533 
Rozan 	 06-230 
Rozdrażew 	 63-708 
Rozogi 	 07-433 
Rozprza 	 97-340 
Różan 	 06-230 
Ruciane-Nida 	 12-221 
Ruda Meleniecka 	 26-242 
Ruda Śląska 	 41-705 
Ruda-Huta 	 22-110 
Rudka 	 17-123 
Rudna 	 59-305 
Rudnik 	 37-420 
Rudniki 	 46-325 
Rudniki 	 42-240 
Rudzica 	 43-394 
Rudziniec 	 44-160 
Rumia 	 84-230 
Rurzyce 	 72-105 
Rusiec 	 98-365 
Rusinow 	 26-411 
Rusocin 	 83-031 
Rutka-Tartak 	 16-406 
Rutki 	 18-312 
Rybnik 	 44-207 
Rybno 	 96-514 
Rychtal 	 63-630 
Rychwal 	 62-570 
Ryczywol 	 64-630 
Rydultowy 	 44-280 
Rydzyna 	 64-130 
Ryglice 	 33-160 
Ryjewo 	 82-420 
Ryki 	 08-500 
Ryman 	 78-125 
Rymanów 	 38-520 
Ryn 	 11-520 
Rypin 	 87-500 
Rytel 	 89-642 
Rytro 	 33-343 
Rzasnia 	 97-518 
Rzasnik 	 07-205 
Rzeczenica 	 77-304 
Rzeczyca 	 97-220 
Rzekun 	 07-411 
Rzepin 	 69-110 
Rzeszów 	 35-085 
Rzezawa 	 32-765 
Rzezawa k. Bochni 	 32-765 
Rzęczkowo 	 87-133 
Rzgów 	 95-030 
Rzuców 	 26-422
Sabnie 	 08-331 
Sadki 	 89-110 
Sadlno 	 62-619 
Sadowie 	 27-580 
Samborzec 	 27-650 
Sandomierz 	 27-600 
Sanniki 	 09-540 
Sanok 	 38-500 
Santok 	 66-431 
Sarnaki 	 08-220 
Sawin 	 22-107 
Sądowne 	 07-140 
Scinawa 	 59-330 
Secemin 	 42-245 
Sedziejowice 	 98-160 
Sejny 	 16-500 
Sepopol 	 11-210 
Serock 	 86-181 
Serokomla 	 21-413 
Sędziszów 	 28-340 
Sędziszów Małopolski 	 39-120 
Sępolno Krajeńskie 	 89-400 
Sianów 	 76-004 
Sicieńko 	 86-014 
Sidra 	 16-124 
Sieciechów 	 26-922 
Siedlce 	 08-110 
Siedlec 	 64-212 
Siedlisko 	 67-112 
Siedliszcze 	 22-130 
Siemianowice Śląskie 	 41-100 
Siemiatycze 	 17-300 
Siemień	 21-220 
Siemkowice 	 98-354 
Siemyśl 	 78-123 
Sieniawa 	 37-530 
Sieniawka 	 58-210 
Siennica 	 05-332 
Sienno 	 27-350 
Siepraw 	 32-447 
Sieradz 	 98-200 
Sierakowice 	 83-340 
Sieraków 	 64-410 
Sieraków Wielkopolski 	 64-410 
Sieroszewice 	 63-405 
Sierpc 	 09-200 
Siewierz 	 42-470 
Sitkowka 	 26-052 
Sitkowka-Nowiny 	 26-052 
Skala 	 32-043 
Skalbmierz 	 28-530 
Skałmierzyce 	 63-460 
Skarbimierz 	 49-318 
Skarszewy 	 83-250 
Skaryszew 	 26-640 
Skarzysko Kościelne 	 27-212 
Skawica 	 34-221 
Skawina 	 32-050 
Skąpe  (Lubuskie)	 66-213 
Skąpe (Kujawsko-pomorskie)	 87-630 
Skępe 	 87-630 
Skierbieszów 	 22-420 
Skierniewice 	 96-100 
Skoczów 	 43-430 
Skoki 	 62-085 
Skomlin 	 98-346 
Skopanie 	 39-451 
Skoroszyce 	 49-233 
Skorzec 	 08-114 
Skorzewo k/Poznania 	 60-185 
Skórcz 	 83-220 
Skrwilno 	 87-510 
Skulsk 	 62-560 
Skwierzyna 	 66-440 
Slawatycze 	 21-515 
Slesin 	 62-561 
Sława 	 67-410 
Sławków 	 42-533 
Sławno 	 76-100 
Sławoborze 	 78-314 
Słomczyn 	 05-507 
Słomniki 	 32-090 
Słońsk 	 66-436 
Słotwina 	 58-100 
Słubice 	 69-100 
Słupca 	 62-400 
Słupno 	 09-472 
Słupsk 	 76-200 
Smardzewice 	 97-213 
Smardzów 	 55-010 
Smętowo Graniczne 	 83-230 
Smoldzino 	 76-214 
Sniadowo 	 18-411 
Sobienie-Jeziory 	 08-443 
Sobków 	 28-305 
Sobolew 	 08-460 
Sobowidz 	 83-033 
Sobótka 	 55-050 
Sochaczew 	 96-500 
Sochocin 	 09-110 
Sokolniki 	 98-420 
Sokołów Małopolski 	 36-140 
Sokołów Podlaski 	 08-300 
Sokoły 	 18-218 
Sokółka 	 16-100 
Solec Kujawski 	 86-050 
Solec n. Wisłą	 27-320 
Solec-Zdrój 	 28-131 
Somonino 	 83-314 
Sompolno 	 62-610 
Sońsk 	 06-430 
Sopot 	 81-704 
Sorkwity 	 11-731 
Sosnicowice 	 44-153 
Sosno 	 89-412 
Sosnowiec 	 41-200 
Sośnie 	 63-435 
Spytkowice 	 34-116 
Srebrna Góra 	 57-215 
Srokowo 	 11-420 
Sromowce Niżne 	 34-443 
Stalowa Wola 	 37-450 
Stanisławów 	 05-304 
Staporków 	 26-220 
Stara Błotnica 	 26-806 
Stara Iwiczna 	 05-500 
Stara Kiszewa 	 83-430 
Starachowice 	 27-200 
Stare Babice 	 05-082 
Stare Bogaczowice 	 58-312 
Stare Juchy 	 19-330 
Stare Kurowo 	 66-540 
Stare Miasto 	 62-571 
Stare Pole 	 82-220 
Stargard Szczeciński 	 73-110 
Starogard Gdański 	 83-200 
Starozręby 	 09-440 
Stary Dzików 	 37-632 
Stary Sącz 	 33-340 
Stary Toruń	 87-134 
Starzyno 	 84-107 
Staszów 	 28-200 
Stawiguda 	 11-034 
Stawiski 	 18-520 
Stawiszyn 	 62-820 
Stefanowo 	 05-552 
Stegna 	 82-103 
Sterdyn 	 08-320 
Steszew 	 62-060 
Stępnica 	 72-112 
Stoczek 	 07-104 
Stoczek Łukowski 	 21-450 
Stolno 	 86-212 
Stopnica 	 28-130 
Stoszowice 	 57-213 
Strachówka 	 05-282 
Straszyn 	 83-010 
Strawczyn 	 26-067 
Stromiec 	 26-804 
Stronie Śląskie 	 57-550 
Stróża 	 23-206 
Strumień	 43-246 
Stryków 	 95-010 
Strzałkowo 	 62-420 
Strzegom 	 58-150 
Strzelce 	 99-307 
Strzelce Krajeńskie 	 65-500 
Strzelce Opolskie 	 47-100 
Strzelce Wielkie 	 42-114 
Strzeleczki 	 47-364 
Strzelin 	 57-100 
Strzelno 	 88-320 
Strzęgowo 	 06-445 
Strzyżewice 	 23-107 
Strzyżów 	 38-100 
Studzienice 	 77-143 
Stupsk 	 06-561 
Subkowy 	 83-120 
Sucha Beskidzka 	 34-200 
Suchań	 73-132 
Suchedniów 	 26-030 
Suchowola 	 16-150 
Suchozebry 	 08-125 
Suchy Bór 	 46-053 
Suchy Dąb 	 83-022 
Suchy Las 	 62-002 
Suchy Las k. Poznania 	 61-022 
Sulechów 	 66-100 
Sulecin 	 69-200 
Suleczyno 	 83-320 
Sulejów 	 97-330 
Sulejówek 	 05-070 
Sulików 	 59-975 
Sulkowice 	 32-440 
Sulmierzyce 	 97-520 
Supraśl 	 16-030 
Suraz 	 18-105 
Susiec 	 22-672 
Susz 	 82-540 
Suszec 	 43-267 
Suwałki 	 16-400 
Swadzim k\Poznania 	 62-080 
Swarożyn 	 83-115 
Swarzędz 	 62-020 
Swędów 	 95-010 
Syców 	 56-500 
Szaflary 	 34-424 
Szamotuly 	 64-500 
Szczecinek 	 78-400 
Szczucin 	 33-230 
Szczyrk 	 43-370 
Szczyrzyc 	 34-623 
Szczytno 	 12-100 
Szklarska Poręba 	 58-580 
Szpotawa 	 67-300 
Szreęsk 	 06-550 
Sztabin 	 16-310 
Sztum 	 82-400 
Sztutowo 	 82-110 
Szubin 	 89-200 
Szudziałowo 	 16-113 
Szułborze Wielkie 	 18-324 
Szumowo 	 18-305 
Szydłowiec 	 26-500 
Szydłowiec 	 26-500 
Szydłowo 	 06-516 
Szydłów 	 28-225 
Szypliszki 	 16-411 
Tarczyn 	 05-555 
Targowiska 	 38-423 
Tarłów 	 27-515 
Tarnobrzeg 	 39-400 
Tarnogród 	 23-420 
Tarnowo Podgórne 	 62-080 
Tarnowskie Góry 	 42-600 
Tarnów 	 33-100 
Tarnów Opolski 	 46-050 
Tarnówka 	 77-416 
Tczew 	 83-110 
Tczewskie Łąki 	 83-110 
Teresin 	 96-515 
Terespol 	 21-550 
Tłuchowo 	 87-605 
Tłuszcz 	 05-240 
Tołkmicko 	 82-340 
Tomaszowice 	 21-008 
Tomaszów Lubelski 	 22-600 
Tomaszów Mazowiecki 	 97-200 
Toruń	 87-100 
Torzym 	 66-235 
Toszek 	 44-180 
Trąbki Wielkie 	 83-034 
Troszyn 	 07-405 
Trzciana 	 32-733 
Trzciana 	 36-071 
Trzcianka 	 64-980 
Trzcianne 	 19-104 
Trzciel 	 66-320 
Trzcinica 	 63-620 
Trzcińsko Zdrój 	 74-225 
Trzebiatów 	 72-320 
Trzebiechów 	 66-132 
Trzebiel 	 68-212 
Trzebinia 	 32-540 
Trzebnica 	 55-100 
Trzebownisko 	 36-001 
Trzemeszno 	 62-240 
Trzyciąż	 32-353 
Tuchola 	 89-500 
Tuchomie 	 77-133 
Tuchów 	 33-170 
Tuczno 	 88-126 
Tulce 	 63-004 
Tuliszków 	 62-740 
Tułowice 	 49-130 
Tuplice 	 68-219 
Turawa 	 46-045 
Turek 	 62-700 
Turobin 	 22-465 
Turosń Kościelna 	 18-106 
Turowo Pomorskie 	 78-431 
Tuszyn 	 95-080 
Twardogóra 	 56-416 
Tworog 	 42-690 
Tychowo 	 78-220 
Tychy 	 43-100 
Tyczyn 	 36-020 
Tykocin 	 16-080 
Tymbark 	 34-650 
Tymienica 	 95-035 
Tyrawa Wołoska 	 38-535 
Tyszowce 	 22-630 
Uchanie 	 22-510 
Ujazd 	 97-170 
Ujsoły 	 34-371 
Ujście 	 64-850 
Ułanów 	 37-410 
Uniejów 	 62-716 
Unisław 	 86-260 
Urzędów 	 23-250 
Ustka 	 76-270 
Ustronie Morskie 	 78-111 
Ustroń	 43-450 
Ustrzyki Dolne 	 38-700 
Wabrzezno 	 87-200 
Wadowice 	 34-100 
Walce 	 47-344 
Walim 	 58-320 
Wałbrzych 	 58-305 
Wałcz 	 78-600 
Wapno 	 62-120 
Warka 	 05-660 
Warlubie 	 86-160 
Warnice 	 74-201 
Warszawa 	 01-464 
Warszawa-Ursus 	 02-495 
Warszawa-Ursus Gołąbki 	 02-496 
Warta 	 98-290 
Wartkowice 	 99-220 
Wasewo 	 07-311 
Wasilków 	 16-010 
Wasniów 	 27-425 
Wąchock 	 27-215 
Wądroże Wielkie 	 59-430 
Wągrowiec 	 62-100 
Wąsosz 	 56-210 
Wejherowo 	 84-200 
Wesoła 	 05-075 
Wesoła, Zakręt 	 05-077 
Wetlina 	 38-608 
Węgierska Gęrka 	 34-350 
Węgliniec 	 59-940 
Węglowice 	 42-133 
Węgorzewo 	 11-600 
Węgorzyno 	 73-320 
Węgrów 	 07-100 
Wiązowna 	 05-462 
Wiązów 	 57-120 
Widawa 	 98-170 
Widuchowa 	 74-120 
Widzino k. Słupska 	 76-251 
Wiechlice k. Szprotawy 	 67-300 
Wielbark 	 12-160 
Wieleń	 64-730 
Wielgomłyny 	 97-525 
Wielichowo 	 64-050 
Wieliczka 	 32-020 
Wieliczki 	 19-404 
Wieliszew 	 05-135 
Wielkie Oczy 	 37-627 
Wielogłowy 	 33-311 
Wielogęra k/ Radomia 	 26-660 
Wielowieś	 44-187 
Wieluń	 98-300 
Wieniawa 	 26-432 
Wieruszów 	 98-400 
Wierzbica 	 26-680 
Wierzchłas 	 98-324 
Wierzchosławice 	 33-122 
Wierzchowo 	 78-530 
Więcbork 	 89-410 
Wijewo 	 67-403 
Wilczyn 	 62-550 
Wilga 	 08-470 
Wilkasy k/Giżycka 	 11-532 
Wilkowice 	 43-365 
Wiłamowice 	 43-330 
Winnica 	 06-120 
Wińsko 	 56-160 
Wiskitki 	 96-315 
Wisła 	 43-460 
Wisznia Mała 	 55-114 
Wisznice 	 21-225 
Wiślica 	 28-160 
Wiśniew 	 08-112 
Witkowo 	 62-425 
Witnica 	 66-460 
Witonia 	 99-335 
Witoszów Dolny 	 58-100 
Wizajny 	 16-407 
Wizna 	 18-430 
Wlen 	 59-610 
Wloszczowa 	 29-100 
Władysławowo 	 84-120 
Władysławów 	 62-710 
Włocławek 	 87-800 
Włodawa 	 22-200 
Włodowice 	 42-365 
Włoszakowice 	 64-140 
Włoszczakowice 	 64-140 
Włoszczowa 	 29-100 
Wodzisław 	 28-330 
Wodzisław Śląski 	 44-300 
Wohyn 	 21-310 
Wojciechów 	 46-300 
Wojcieszków 	 21-411 
Wojcieszów 	 58-579 
Wojkowice 	 42-580 
Wojnicz 	 32-830 
Wojsławice 	 22-120 
Wola Kiędrzyńska 	 42-222 
Wola Krzysztoporska 	 97-371 
Wola Mrokowska 	 05-552 
Wola Uhruska 	 22-230 
Wolanów 	 26-625 
Wolborz 	 97-320 
Wolbrom 	 32-340 
Wolczyn 	 46-250 
Woliborz 	 57-431 
Wolin 	 72-500 
Wolow 	 56-100 
Wolsztyn 	 64-200 
Wołomin 	 05-200 
Wożniki 	 42-289 
Wólka Kosowska 	 05-552 
Wreczyca 	 42-130 
Wreczyca Wielka 	 42-130 
Wrocław 	 51-416 
Wronki 	 64-510 
Września 	 62-300 
Wrzosowa 	 42-263 
Wrzosowo 	 42-263 
Wschowa 	 67-400 
Wydminy 	 11-510 
Wymiarki 	 68-131 
Wyry 	 43-175 
Wyrzysk 	 89-300 
Wysoka 	 89-320 
Wysoka Głogowska 	 36-061 
Wysokie 	 22-445 
Wysokie Mazowieckie 	 18-200 
Wyszki 	 17-132 
Wyszków 	 07-200 
Wyszogród 	 09-450 
Wyśmierzyce 	 26-811
Zabierzów 	 32-080 
Zabki 	 05-091 
Zabłudów 	 16-060 
Zabno 	 33-240 
Zaborów 	 05-083 
Zabór 	 66-003 
Zabrze 	 41-800 
Zabrzeg 	 43-516 
Zaczernie 	 36-062 
Zadobrze 	 26-670 
Zagnańsk 	 26-050 
Zagorów 	 62-410 
Zagorz 	 38-540 
Zakliczyn 	 32-840 
Zaklikow 	 37-470 
Zakopane 	 34-500 
Zakroczym 	 05-170 
Zakrzew 	 26-652 
Zakrzewo 	 62-069 
Zakrzewska Wola 	 26-652 
Zakrzówek 	 23-213 
Zalesie 	 21-512 
Zalesie Górne 	 05-540 
Zalewo 	 14-320 
Załubice Stare 	 05-255 
Zambrów 	 18-300 
Zamość (Kujawsko-pomorskie)	 89-203 
Zamość (Lubelskie)	 22-400 
Zaniemyśl 	 63-020 
Zapolice 	 98-161 
Zator 	 32-640 
Zawady 	 18-314 
Zawadzkie 	 46-059 
Zawichost 	 27-630 
Zawidów 	 59-970 
Zawidz 	 09-226 
Zawiercie 	 42-400 
Zawoja 	 34-222 
Zawonia 	 55-106 
Ząb 	 34-521 
Ząbki 	 05-091 
Ząbkowice 	 57-200 
Ząbkowice Śląskie 	 57-200 
Zbąszyn 	 64-360 
Zbąszynek 	 66-210 
Zblewo 	 83-210 
Zbojna 	 18-416 
Zbrosławice 	 42-674 
Zbuczyn Poduchowny 	 08-106 
Zduny 	 63-760 
Zduńska Wola 	 98-220 
Zdzieszowice 	 47-330 
Zelechlinek 	 97-226 
Zelechów 	 08-430 
Zelów 	 97-425 
Zembrzyce 	 34-210 
Zerków 	 63-210 
Zębowice 	 46-048 
Zębrzydowice 	 43-525 
Zgierz 	 95-100 
Zgorzelec 	 59-900 
Zielona Góra 	 65-751 
Zielona Góra 	 65-713 
Zielonka 	 05-220 
Zielonki 	 32-087 
Ziębice 	 57-220 
Zlotów 	 77-400 
Zloty Stok 	 57-250 
Zławieś Wielka 	 87-134 
Złocieniec 	 78-520 
Złoczew 	 98-270 
Złotniki k. Poznania 	 62-002 
Złotniki Kujawskie 	 88-180 
Złotoria 	 87-124 
Złotoryja 	 59-500 
Zolynia 	 37-110 
Zorawina 	 55-020 
Zrecin 	 38-457 
Zwierzyn 	 66-542 
Zwierzyniec 	 22-470 
Zwoleń	 26-700 
