pl\arek\controller\AnimalTypeController.class
pl\arek\entity\Animal.class
pl\arek\controller\AnimalController.class
pl\arek\animalTypeRepository\AnimalTypeRepository.class
pl\arek\entity\AnimalType.class
pl\arek\animalTypeRepository\AnimalRepository.class
pl\arek\Application.class
